[gd_scene load_steps=2 format=2]

[ext_resource path="res://scripts/Location.gd" type="Script" id=1]

[node name="Location" type="ColorRect"]
margin_right = 246.0
margin_bottom = 30.0
rect_min_size = Vector2( 0, 30 )
color = Color( 0.0980392, 0.0980392, 0.0980392, 1 )
script = ExtResource( 1 )
__meta__ = {
"_edit_use_anchors_": false
}

[node name="LineEdit" type="LineEdit" parent="."]
anchor_right = 1.0
anchor_bottom = 1.0
size_flags_horizontal = 3
__meta__ = {
"_edit_use_anchors_": false
}

[connection signal="focus_exited" from="LineEdit" to="." method="_on_LineEdit_focus_exited"]
